{
  "@context": {
    "aa": "http://activearchives.org/terms", 
    "tiles": "aa:tiles", 
    "id": "@id", 
    "name": "aa:filename"
  }, 
  "@graph": [
    {
      "tiles": "tiles/_DSC1876.png/z{z}y{y}x{x}.jpg", 
      "id": "png/_DSC1876.png", 
      "name": "_DSC1876.png"
    }, 
    {
      "tiles": "tiles/_DSC1885.png/z{z}y{y}x{x}.jpg", 
      "id": "png/_DSC1885.png", 
      "name": "_DSC1885.png"
    }, 
    {
      "tiles": "tiles/_DSC1886.png/z{z}y{y}x{x}.jpg", 
      "id": "png/_DSC1886.png", 
      "name": "_DSC1886.png"
    }, 
    {
      "tiles": "tiles/_DSC1889.png/z{z}y{y}x{x}.jpg", 
      "id": "png/_DSC1889.png", 
      "name": "_DSC1889.png"
    }, 
    {
      "tiles": "tiles/_DSC1890.png/z{z}y{y}x{x}.jpg", 
      "id": "png/_DSC1890.png", 
      "name": "_DSC1890.png"
    }, 
    {
      "tiles": "tiles/_DSC1891.png/z{z}y{y}x{x}.jpg", 
      "id": "png/_DSC1891.png", 
      "name": "_DSC1891.png"
    }, 
    {
      "tiles": "tiles/_DSC1892.png/z{z}y{y}x{x}.jpg", 
      "id": "png/_DSC1892.png", 
      "name": "_DSC1892.png"
    }, 
    {
      "tiles": "tiles/_DSC1893.png/z{z}y{y}x{x}.jpg", 
      "id": "png/_DSC1893.png", 
      "name": "_DSC1893.png"
    }, 
    {
      "tiles": "tiles/_DSC1894.png/z{z}y{y}x{x}.jpg", 
      "id": "png/_DSC1894.png", 
      "name": "_DSC1894.png"
    }, 
    {
      "tiles": "tiles/_DSC1895.png/z{z}y{y}x{x}.jpg", 
      "id": "png/_DSC1895.png", 
      "name": "_DSC1895.png"
    }, 
    {
      "tiles": "tiles/_DSC1896.png/z{z}y{y}x{x}.jpg", 
      "id": "png/_DSC1896.png", 
      "name": "_DSC1896.png"
    }, 
    {
      "tiles": "tiles/_DSC1897.png/z{z}y{y}x{x}.jpg", 
      "id": "png/_DSC1897.png", 
      "name": "_DSC1897.png"
    }, 
    {
      "tiles": "tiles/_DSC1898.png/z{z}y{y}x{x}.jpg", 
      "id": "png/_DSC1898.png", 
      "name": "_DSC1898.png"
    }, 
    {
      "tiles": "tiles/_DSC1899.png/z{z}y{y}x{x}.jpg", 
      "id": "png/_DSC1899.png", 
      "name": "_DSC1899.png"
    }, 
    {
      "tiles": "tiles/_DSC1900.png/z{z}y{y}x{x}.jpg", 
      "id": "png/_DSC1900.png", 
      "name": "_DSC1900.png"
    }, 
    {
      "tiles": "tiles/_DSC1901.png/z{z}y{y}x{x}.jpg", 
      "id": "png/_DSC1901.png", 
      "name": "_DSC1901.png"
    }, 
    {
      "tiles": "tiles/_DSC1903.png/z{z}y{y}x{x}.jpg", 
      "id": "png/_DSC1903.png", 
      "name": "_DSC1903.png"
    }, 
    {
      "tiles": "tiles/_DSC1904.png/z{z}y{y}x{x}.jpg", 
      "id": "png/_DSC1904.png", 
      "name": "_DSC1904.png"
    }, 
    {
      "tiles": "tiles/_DSC1905.png/z{z}y{y}x{x}.jpg", 
      "id": "png/_DSC1905.png", 
      "name": "_DSC1905.png"
    }, 
    {
      "tiles": "tiles/_DSC1906.png/z{z}y{y}x{x}.jpg", 
      "id": "png/_DSC1906.png", 
      "name": "_DSC1906.png"
    }, 
    {
      "tiles": "tiles/_DSC1907.png/z{z}y{y}x{x}.jpg", 
      "id": "png/_DSC1907.png", 
      "name": "_DSC1907.png"
    }, 
    {
      "tiles": "tiles/_DSC1908.png/z{z}y{y}x{x}.jpg", 
      "id": "png/_DSC1908.png", 
      "name": "_DSC1908.png"
    }, 
    {
      "tiles": "tiles/_DSC1909.png/z{z}y{y}x{x}.jpg", 
      "id": "png/_DSC1909.png", 
      "name": "_DSC1909.png"
    }, 
    {
      "tiles": "tiles/_DSC1910.png/z{z}y{y}x{x}.jpg", 
      "id": "png/_DSC1910.png", 
      "name": "_DSC1910.png"
    }, 
    {
      "tiles": "tiles/_DSC1911.png/z{z}y{y}x{x}.jpg", 
      "id": "png/_DSC1911.png", 
      "name": "_DSC1911.png"
    }, 
    {
      "tiles": "tiles/_DSC1913.png/z{z}y{y}x{x}.jpg", 
      "id": "png/_DSC1913.png", 
      "name": "_DSC1913.png"
    }, 
    {
      "tiles": "tiles/_DSC1914.png/z{z}y{y}x{x}.jpg", 
      "id": "png/_DSC1914.png", 
      "name": "_DSC1914.png"
    }, 
    {
      "tiles": "tiles/_DSC1915.png/z{z}y{y}x{x}.jpg", 
      "id": "png/_DSC1915.png", 
      "name": "_DSC1915.png"
    }, 
    {
      "tiles": "tiles/_DSC1916.png/z{z}y{y}x{x}.jpg", 
      "id": "png/_DSC1916.png", 
      "name": "_DSC1916.png"
    }, 
    {
      "tiles": "tiles/_DSC1917.png/z{z}y{y}x{x}.jpg", 
      "id": "png/_DSC1917.png", 
      "name": "_DSC1917.png"
    }, 
    {
      "tiles": "tiles/_DSC1918.png/z{z}y{y}x{x}.jpg", 
      "id": "png/_DSC1918.png", 
      "name": "_DSC1918.png"
    }, 
    {
      "tiles": "tiles/_DSC1919.png/z{z}y{y}x{x}.jpg", 
      "id": "png/_DSC1919.png", 
      "name": "_DSC1919.png"
    }, 
    {
      "tiles": "tiles/_DSC1920.png/z{z}y{y}x{x}.jpg", 
      "id": "png/_DSC1920.png", 
      "name": "_DSC1920.png"
    }, 
    {
      "tiles": "tiles/_DSC1921.png/z{z}y{y}x{x}.jpg", 
      "id": "png/_DSC1921.png", 
      "name": "_DSC1921.png"
    }, 
    {
      "tiles": "tiles/_DSC1922.png/z{z}y{y}x{x}.jpg", 
      "id": "png/_DSC1922.png", 
      "name": "_DSC1922.png"
    }, 
    {
      "tiles": "tiles/_DSC1923.png/z{z}y{y}x{x}.jpg", 
      "id": "png/_DSC1923.png", 
      "name": "_DSC1923.png"
    }, 
    {
      "tiles": "tiles/_DSC1924.png/z{z}y{y}x{x}.jpg", 
      "id": "png/_DSC1924.png", 
      "name": "_DSC1924.png"
    }, 
    {
      "tiles": "tiles/_DSC1925.png/z{z}y{y}x{x}.jpg", 
      "id": "png/_DSC1925.png", 
      "name": "_DSC1925.png"
    }, 
    {
      "tiles": "tiles/_DSC1926.png/z{z}y{y}x{x}.jpg", 
      "id": "png/_DSC1926.png", 
      "name": "_DSC1926.png"
    }, 
    {
      "tiles": "tiles/_DSC1927.png/z{z}y{y}x{x}.jpg", 
      "id": "png/_DSC1927.png", 
      "name": "_DSC1927.png"
    }, 
    {
      "tiles": "tiles/_DSC1928.png/z{z}y{y}x{x}.jpg", 
      "id": "png/_DSC1928.png", 
      "name": "_DSC1928.png"
    }, 
    {
      "tiles": "tiles/_DSC1929.png/z{z}y{y}x{x}.jpg", 
      "id": "png/_DSC1929.png", 
      "name": "_DSC1929.png"
    }, 
    {
      "tiles": "tiles/_DSC1930.png/z{z}y{y}x{x}.jpg", 
      "id": "png/_DSC1930.png", 
      "name": "_DSC1930.png"
    }, 
    {
      "tiles": "tiles/_DSC1931.png/z{z}y{y}x{x}.jpg", 
      "id": "png/_DSC1931.png", 
      "name": "_DSC1931.png"
    }, 
    {
      "tiles": "tiles/_DSC1932.png/z{z}y{y}x{x}.jpg", 
      "id": "png/_DSC1932.png", 
      "name": "_DSC1932.png"
    }, 
    {
      "tiles": "tiles/_DSC1933.png/z{z}y{y}x{x}.jpg", 
      "id": "png/_DSC1933.png", 
      "name": "_DSC1933.png"
    }, 
    {
      "tiles": "tiles/_DSC1934.png/z{z}y{y}x{x}.jpg", 
      "id": "png/_DSC1934.png", 
      "name": "_DSC1934.png"
    }, 
    {
      "tiles": "tiles/_DSC1936.png/z{z}y{y}x{x}.jpg", 
      "id": "png/_DSC1936.png", 
      "name": "_DSC1936.png"
    }, 
    {
      "tiles": "tiles/_DSC1937.png/z{z}y{y}x{x}.jpg", 
      "id": "png/_DSC1937.png", 
      "name": "_DSC1937.png"
    }, 
    {
      "tiles": "tiles/_DSC1938.png/z{z}y{y}x{x}.jpg", 
      "id": "png/_DSC1938.png", 
      "name": "_DSC1938.png"
    }, 
    {
      "tiles": "tiles/_DSC1939.png/z{z}y{y}x{x}.jpg", 
      "id": "png/_DSC1939.png", 
      "name": "_DSC1939.png"
    }, 
    {
      "tiles": "tiles/_DSC1940.png/z{z}y{y}x{x}.jpg", 
      "id": "png/_DSC1940.png", 
      "name": "_DSC1940.png"
    }, 
    {
      "tiles": "tiles/_DSC1941.png/z{z}y{y}x{x}.jpg", 
      "id": "png/_DSC1941.png", 
      "name": "_DSC1941.png"
    }, 
    {
      "tiles": "tiles/_DSC1942.png/z{z}y{y}x{x}.jpg", 
      "id": "png/_DSC1942.png", 
      "name": "_DSC1942.png"
    }, 
    {
      "tiles": "tiles/_DSC1943.png/z{z}y{y}x{x}.jpg", 
      "id": "png/_DSC1943.png", 
      "name": "_DSC1943.png"
    }, 
    {
      "tiles": "tiles/_DSC1944.png/z{z}y{y}x{x}.jpg", 
      "id": "png/_DSC1944.png", 
      "name": "_DSC1944.png"
    }, 
    {
      "tiles": "tiles/_DSC1945.png/z{z}y{y}x{x}.jpg", 
      "id": "png/_DSC1945.png", 
      "name": "_DSC1945.png"
    }, 
    {
      "tiles": "tiles/_DSC1946.png/z{z}y{y}x{x}.jpg", 
      "id": "png/_DSC1946.png", 
      "name": "_DSC1946.png"
    }, 
    {
      "tiles": "tiles/_DSC1947.png/z{z}y{y}x{x}.jpg", 
      "id": "png/_DSC1947.png", 
      "name": "_DSC1947.png"
    }, 
    {
      "tiles": "tiles/_DSC1948.png/z{z}y{y}x{x}.jpg", 
      "id": "png/_DSC1948.png", 
      "name": "_DSC1948.png"
    }, 
    {
      "tiles": "tiles/_DSC1949.png/z{z}y{y}x{x}.jpg", 
      "id": "png/_DSC1949.png", 
      "name": "_DSC1949.png"
    }, 
    {
      "tiles": "tiles/_DSC1950.png/z{z}y{y}x{x}.jpg", 
      "id": "png/_DSC1950.png", 
      "name": "_DSC1950.png"
    }, 
    {
      "tiles": "tiles/_DSC1951.png/z{z}y{y}x{x}.jpg", 
      "id": "png/_DSC1951.png", 
      "name": "_DSC1951.png"
    }, 
    {
      "tiles": "tiles/_DSC1952.png/z{z}y{y}x{x}.jpg", 
      "id": "png/_DSC1952.png", 
      "name": "_DSC1952.png"
    }, 
    {
      "tiles": "tiles/_DSC1954.png/z{z}y{y}x{x}.jpg", 
      "id": "png/_DSC1954.png", 
      "name": "_DSC1954.png"
    }, 
    {
      "tiles": "tiles/_DSC1955.png/z{z}y{y}x{x}.jpg", 
      "id": "png/_DSC1955.png", 
      "name": "_DSC1955.png"
    }, 
    {
      "tiles": "tiles/_DSC1956.png/z{z}y{y}x{x}.jpg", 
      "id": "png/_DSC1956.png", 
      "name": "_DSC1956.png"
    }, 
    {
      "tiles": "tiles/_DSC1957.png/z{z}y{y}x{x}.jpg", 
      "id": "png/_DSC1957.png", 
      "name": "_DSC1957.png"
    }, 
    {
      "tiles": "tiles/_DSC1958.png/z{z}y{y}x{x}.jpg", 
      "id": "png/_DSC1958.png", 
      "name": "_DSC1958.png"
    }, 
    {
      "tiles": "tiles/_DSC1959.png/z{z}y{y}x{x}.jpg", 
      "id": "png/_DSC1959.png", 
      "name": "_DSC1959.png"
    }, 
    {
      "tiles": "tiles/_DSC1960.png/z{z}y{y}x{x}.jpg", 
      "id": "png/_DSC1960.png", 
      "name": "_DSC1960.png"
    }, 
    {
      "tiles": "tiles/_DSC1961.png/z{z}y{y}x{x}.jpg", 
      "id": "png/_DSC1961.png", 
      "name": "_DSC1961.png"
    }, 
    {
      "tiles": "tiles/_DSC1962.png/z{z}y{y}x{x}.jpg", 
      "id": "png/_DSC1962.png", 
      "name": "_DSC1962.png"
    }, 
    {
      "tiles": "tiles/_DSC1964.png/z{z}y{y}x{x}.jpg", 
      "id": "png/_DSC1964.png", 
      "name": "_DSC1964.png"
    }, 
    {
      "tiles": "tiles/_DSC1965.png/z{z}y{y}x{x}.jpg", 
      "id": "png/_DSC1965.png", 
      "name": "_DSC1965.png"
    }, 
    {
      "tiles": "tiles/_DSC1966.png/z{z}y{y}x{x}.jpg", 
      "id": "png/_DSC1966.png", 
      "name": "_DSC1966.png"
    }, 
    {
      "tiles": "tiles/_DSC1967.png/z{z}y{y}x{x}.jpg", 
      "id": "png/_DSC1967.png", 
      "name": "_DSC1967.png"
    }, 
    {
      "tiles": "tiles/_DSC1968.png/z{z}y{y}x{x}.jpg", 
      "id": "png/_DSC1968.png", 
      "name": "_DSC1968.png"
    }, 
    {
      "tiles": "tiles/_DSC1969.png/z{z}y{y}x{x}.jpg", 
      "id": "png/_DSC1969.png", 
      "name": "_DSC1969.png"
    }, 
    {
      "tiles": "tiles/_DSC1970.png/z{z}y{y}x{x}.jpg", 
      "id": "png/_DSC1970.png", 
      "name": "_DSC1970.png"
    }, 
    {
      "tiles": "tiles/_DSC1971.png/z{z}y{y}x{x}.jpg", 
      "id": "png/_DSC1971.png", 
      "name": "_DSC1971.png"
    }, 
    {
      "tiles": "tiles/_DSC1972.png/z{z}y{y}x{x}.jpg", 
      "id": "png/_DSC1972.png", 
      "name": "_DSC1972.png"
    }, 
    {
      "tiles": "tiles/_DSC1973.png/z{z}y{y}x{x}.jpg", 
      "id": "png/_DSC1973.png", 
      "name": "_DSC1973.png"
    }, 
    {
      "tiles": "tiles/_DSC1974.png/z{z}y{y}x{x}.jpg", 
      "id": "png/_DSC1974.png", 
      "name": "_DSC1974.png"
    }, 
    {
      "tiles": "tiles/_DSC1975.png/z{z}y{y}x{x}.jpg", 
      "id": "png/_DSC1975.png", 
      "name": "_DSC1975.png"
    }, 
    {
      "tiles": "tiles/_DSC1976.png/z{z}y{y}x{x}.jpg", 
      "id": "png/_DSC1976.png", 
      "name": "_DSC1976.png"
    }, 
    {
      "tiles": "tiles/_DSC1977.png/z{z}y{y}x{x}.jpg", 
      "id": "png/_DSC1977.png", 
      "name": "_DSC1977.png"
    }, 
    {
      "tiles": "tiles/_DSC1978.png/z{z}y{y}x{x}.jpg", 
      "id": "png/_DSC1978.png", 
      "name": "_DSC1978.png"
    }, 
    {
      "tiles": "tiles/pp174175.png/z{z}y{y}x{x}.jpg", 
      "id": "png/pp174175.png", 
      "name": "pp174175.png"
    },
    {
      "tiles": "tiles/_DSC1979.png/z{z}y{y}x{x}.jpg", 
      "id": "png/_DSC1979.png", 
      "name": "_DSC1979.png"
    }, 
    {
      "tiles": "tiles/_DSC1980.png/z{z}y{y}x{x}.jpg", 
      "id": "png/_DSC1980.png", 
      "name": "_DSC1980.png"
    }, 
    {
      "tiles": "tiles/_DSC1981.png/z{z}y{y}x{x}.jpg", 
      "id": "png/_DSC1981.png", 
      "name": "_DSC1981.png"
    }, 
    {
      "tiles": "tiles/_DSC1982.png/z{z}y{y}x{x}.jpg", 
      "id": "png/_DSC1982.png", 
      "name": "_DSC1982.png"
    }, 
    {
      "tiles": "tiles/_DSC1983.png/z{z}y{y}x{x}.jpg", 
      "id": "png/_DSC1983.png", 
      "name": "_DSC1983.png"
    }, 
    {
      "tiles": "tiles/_DSC1984.png/z{z}y{y}x{x}.jpg", 
      "id": "png/_DSC1984.png", 
      "name": "_DSC1984.png"
    }, 
    {
      "tiles": "tiles/_DSC1985.png/z{z}y{y}x{x}.jpg", 
      "id": "png/_DSC1985.png", 
      "name": "_DSC1985.png"
    }, 
    {
      "tiles": "tiles/_DSC1986.png/z{z}y{y}x{x}.jpg", 
      "id": "png/_DSC1986.png", 
      "name": "_DSC1986.png"
    }, 
    {
      "tiles": "tiles/_DSC1987.png/z{z}y{y}x{x}.jpg", 
      "id": "png/_DSC1987.png", 
      "name": "_DSC1987.png"
    }, 
    {
      "tiles": "tiles/_DSC1988.png/z{z}y{y}x{x}.jpg", 
      "id": "png/_DSC1988.png", 
      "name": "_DSC1988.png"
    }, 
    {
      "tiles": "tiles/_DSC1989.png/z{z}y{y}x{x}.jpg", 
      "id": "png/_DSC1989.png", 
      "name": "_DSC1989.png"
    }, 
    {
      "tiles": "tiles/_DSC1990.png/z{z}y{y}x{x}.jpg", 
      "id": "png/_DSC1990.png", 
      "name": "_DSC1990.png"
    }, 
    {
      "tiles": "tiles/_DSC1991.png/z{z}y{y}x{x}.jpg", 
      "id": "png/_DSC1991.png", 
      "name": "_DSC1991.png"
    }, 
    {
      "tiles": "tiles/_DSC1992.png/z{z}y{y}x{x}.jpg", 
      "id": "png/_DSC1992.png", 
      "name": "_DSC1992.png"
    }, 
    {
      "tiles": "tiles/_DSC1993.png/z{z}y{y}x{x}.jpg", 
      "id": "png/_DSC1993.png", 
      "name": "_DSC1993.png"
    }, 
    {
      "tiles": "tiles/_DSC1994.png/z{z}y{y}x{x}.jpg", 
      "id": "png/_DSC1994.png", 
      "name": "_DSC1994.png"
    }, 
    {
      "tiles": "tiles/_DSC1995.png/z{z}y{y}x{x}.jpg", 
      "id": "png/_DSC1995.png", 
      "name": "_DSC1995.png"
    }, 
    {
      "tiles": "tiles/_DSC1996.png/z{z}y{y}x{x}.jpg", 
      "id": "png/_DSC1996.png", 
      "name": "_DSC1996.png"
    }, 
    {
      "tiles": "tiles/_DSC1997.png/z{z}y{y}x{x}.jpg", 
      "id": "png/_DSC1997.png", 
      "name": "_DSC1997.png"
    }, 
    {
      "tiles": "tiles/_DSC1998.png/z{z}y{y}x{x}.jpg", 
      "id": "png/_DSC1998.png", 
      "name": "_DSC1998.png"
    }, 
    {
      "tiles": "tiles/_DSC1999.png/z{z}y{y}x{x}.jpg", 
      "id": "png/_DSC1999.png", 
      "name": "_DSC1999.png"
    }, 
    {
      "tiles": "tiles/_DSC2000.png/z{z}y{y}x{x}.jpg", 
      "id": "png/_DSC2000.png", 
      "name": "_DSC2000.png"
    }, 
    {
      "tiles": "tiles/_DSC2001.png/z{z}y{y}x{x}.jpg", 
      "id": "png/_DSC2001.png", 
      "name": "_DSC2001.png"
    },
    {
      "tiles": "tiles/_DSC1877.png/z{z}y{y}x{x}.jpg", 
      "id": "png/_DSC1877.png", 
      "name": "_DSC1877.png"
    } 
  ]
}
