{
  "@context": {
    "aa": "http://activearchives.org/terms", 
    "tiles": "aa:tiles", 
    "id": "@id", 
    "name": "aa:filename"
  }, 
  "@graph": [
    {
      "tiles": "tiles/_DSC1733.png/z{z}y{y}x{x}.jpg", 
      "id": "png/_DSC1733.png", 
      "name": "_DSC1733.png"
    }, 
    {
      "tiles": "tiles/_DSC1734.png/z{z}y{y}x{x}.jpg", 
      "id": "png/_DSC1734.png", 
      "name": "_DSC1734.png"
    }, 
    {
      "tiles": "tiles/_DSC1735.png/z{z}y{y}x{x}.jpg", 
      "id": "png/_DSC1735.png", 
      "name": "_DSC1735.png"
    }, 
    {
      "tiles": "tiles/_DSC1736.png/z{z}y{y}x{x}.jpg", 
      "id": "png/_DSC1736.png", 
      "name": "_DSC1736.png"
    }, 
    {
      "tiles": "tiles/_DSC1737.png/z{z}y{y}x{x}.jpg", 
      "id": "png/_DSC1737.png", 
      "name": "_DSC1737.png"
    }, 
    {
      "tiles": "tiles/_DSC1738.png/z{z}y{y}x{x}.jpg", 
      "id": "png/_DSC1738.png", 
      "name": "_DSC1738.png"
    }, 
    {
      "tiles": "tiles/_DSC1739.png/z{z}y{y}x{x}.jpg", 
      "id": "png/_DSC1739.png", 
      "name": "_DSC1739.png"
    }, 
    {
      "tiles": "tiles/_DSC1740.png/z{z}y{y}x{x}.jpg", 
      "id": "png/_DSC1740.png", 
      "name": "_DSC1740.png"
    }, 
    {
      "tiles": "tiles/_DSC1741.png/z{z}y{y}x{x}.jpg", 
      "id": "png/_DSC1741.png", 
      "name": "_DSC1741.png"
    }, 
    {
      "tiles": "tiles/_DSC1742.png/z{z}y{y}x{x}.jpg", 
      "id": "png/_DSC1742.png", 
      "name": "_DSC1742.png"
    }, 
    {
      "tiles": "tiles/_DSC1743.png/z{z}y{y}x{x}.jpg", 
      "id": "png/_DSC1743.png", 
      "name": "_DSC1743.png"
    }, 
    {
      "tiles": "tiles/_DSC1744.png/z{z}y{y}x{x}.jpg", 
      "id": "png/_DSC1744.png", 
      "name": "_DSC1744.png"
    }, 
    {
      "tiles": "tiles/_DSC1745.png/z{z}y{y}x{x}.jpg", 
      "id": "png/_DSC1745.png", 
      "name": "_DSC1745.png"
    }, 
    {
      "tiles": "tiles/_DSC1746.png/z{z}y{y}x{x}.jpg", 
      "id": "png/_DSC1746.png", 
      "name": "_DSC1746.png"
    }, 
    {
      "tiles": "tiles/_DSC1747.png/z{z}y{y}x{x}.jpg", 
      "id": "png/_DSC1747.png", 
      "name": "_DSC1747.png"
    }, 
    {
      "tiles": "tiles/_DSC1748.png/z{z}y{y}x{x}.jpg", 
      "id": "png/_DSC1748.png", 
      "name": "_DSC1748.png"
    }, 
    {
      "tiles": "tiles/_DSC1749.png/z{z}y{y}x{x}.jpg", 
      "id": "png/_DSC1749.png", 
      "name": "_DSC1749.png"
    }, 
    {
      "tiles": "tiles/_DSC1750.png/z{z}y{y}x{x}.jpg", 
      "id": "png/_DSC1750.png", 
      "name": "_DSC1750.png"
    }, 
    {
      "tiles": "tiles/_DSC1751.png/z{z}y{y}x{x}.jpg", 
      "id": "png/_DSC1751.png", 
      "name": "_DSC1751.png"
    }, 
    {
      "tiles": "tiles/_DSC1752.png/z{z}y{y}x{x}.jpg", 
      "id": "png/_DSC1752.png", 
      "name": "_DSC1752.png"
    }, 
    {
      "tiles": "tiles/_DSC1753.png/z{z}y{y}x{x}.jpg", 
      "id": "png/_DSC1753.png", 
      "name": "_DSC1753.png"
    }, 
    {
      "tiles": "tiles/_DSC1754.png/z{z}y{y}x{x}.jpg", 
      "id": "png/_DSC1754.png", 
      "name": "_DSC1754.png"
    }, 
    {
      "tiles": "tiles/_DSC1755.png/z{z}y{y}x{x}.jpg", 
      "id": "png/_DSC1755.png", 
      "name": "_DSC1755.png"
    }, 
    {
      "tiles": "tiles/_DSC1756.png/z{z}y{y}x{x}.jpg", 
      "id": "png/_DSC1756.png", 
      "name": "_DSC1756.png"
    }, 
    {
      "tiles": "tiles/_DSC1757.png/z{z}y{y}x{x}.jpg", 
      "id": "png/_DSC1757.png", 
      "name": "_DSC1757.png"
    }, 
    {
      "tiles": "tiles/_DSC1758.png/z{z}y{y}x{x}.jpg", 
      "id": "png/_DSC1758.png", 
      "name": "_DSC1758.png"
    }, 
    {
      "tiles": "tiles/_DSC1760.png/z{z}y{y}x{x}.jpg", 
      "id": "png/_DSC1760.png", 
      "name": "_DSC1760.png"
    }, 
    {
      "tiles": "tiles/_DSC1761.png/z{z}y{y}x{x}.jpg", 
      "id": "png/_DSC1761.png", 
      "name": "_DSC1761.png"
    }, 
    {
      "tiles": "tiles/_DSC1762.png/z{z}y{y}x{x}.jpg", 
      "id": "png/_DSC1762.png", 
      "name": "_DSC1762.png"
    }, 
    {
      "tiles": "tiles/_DSC1763.png/z{z}y{y}x{x}.jpg", 
      "id": "png/_DSC1763.png", 
      "name": "_DSC1763.png"
    }, 
    {
      "tiles": "tiles/_DSC1764.png/z{z}y{y}x{x}.jpg", 
      "id": "png/_DSC1764.png", 
      "name": "_DSC1764.png"
    }, 
    {
      "tiles": "tiles/_DSC1765.png/z{z}y{y}x{x}.jpg", 
      "id": "png/_DSC1765.png", 
      "name": "_DSC1765.png"
    }, 
    {
      "tiles": "tiles/_DSC1766.png/z{z}y{y}x{x}.jpg", 
      "id": "png/_DSC1766.png", 
      "name": "_DSC1766.png"
    }
  ]
}
